{
  "topalbums": {
    "album": [
      {
        "name": "Believe",
        "playcount": 5219961,
        "mbid": "63b3a8ca-26f2-4e2b-b867-647a6ec2bebd",
        "url": "https://www.last.fm/music/Cher/Believe",
        "artist": {
          "name": "Cher",
          "mbid": "bfcc6d75-a6a5-4bc6-8282-47aec8531818",
          "url": "https://www.last.fm/music/Cher"
        },
        "image": [
          {
            "#text": "https://lastfm.freetls.fastly.net/i/u/34s/3b54885952161aaea4ce2965b2db1638.png",
            "size": "small"
          },
          {
            "#text": "https://lastfm.freetls.fastly.net/i/u/64s/3b54885952161aaea4ce2965b2db1638.png",
            "size": "medium"
          },
          {
            "#text": "https://lastfm.freetls.fastly.net/i/u/174s/3b54885952161aaea4ce2965b2db1638.png",
            "size": "large"
          },
          {
            "#text": "https://lastfm.freetls.fastly.net/i/u/300x300/3b54885952161aaea4ce2965b2db1638.png",
            "size": "extralarge"
          }
        ]
      },
      {
        "name": "The Very Best of Cher",
        "playcount": 1748666,
        "mbid": "a7e2dad7-e733-4bee-9db1-b31e3183eaf5",
        "url": "https://www.last.fm/music/Cher/The+Very+Best+of+Cher",
        "artist": {
          "name": "Cher",
          "mbid": "bfcc6d75-a6a5-4bc6-8282-47aec8531818",
          "url": "https://www.last.fm/music/Cher"
        },
        "image": [
          {
            "#text": "https://lastfm.freetls.fastly.net/i/u/34s/0fd942f7e629a01ec2d067e41464ff5d.png",
            "size": "small"
          },
          {
            "#text": "https://lastfm.freetls.fastly.net/i/u/64s/0fd942f7e629a01ec2d067e41464ff5d.png",
            "size": "medium"
          },
          {
            "#text": "https://lastfm.freetls.fastly.net/i/u/174s/0fd942f7e629a01ec2d067e41464ff5d.png",
            "size": "large"
          },
          {
            "#text": "https://lastfm.freetls.fastly.net/i/u/300x300/0fd942f7e629a01ec2d067e41464ff5d.png",
            "size": "extralarge"
          }
        ]
      },
      {
        "name": "Heart of Stone",
        "playcount": 1729137,
        "mbid": "7468fc70-9cba-4bad-a2a8-4201221f54fe",
        "url": "https://www.last.fm/music/Cher/Heart+of+Stone",
        "artist": {
          "name": "Cher",
          "mbid": "bfcc6d75-a6a5-4bc6-8282-47aec8531818",
          "url": "https://www.last.fm/music/Cher"
        },
        "image": [
          {
            "#text": "https://lastfm.freetls.fastly.net/i/u/34s/e8f76af3d702f7850ba5a4c9fa055030.png",
            "size": "small"
          },
          {
            "#text": "https://lastfm.freetls.fastly.net/i/u/64s/e8f76af3d702f7850ba5a4c9fa055030.png",
            "size": "medium"
          },
          {
            "#text": "https://lastfm.freetls.fastly.net/i/u/174s/e8f76af3d702f7850ba5a4c9fa055030.png",
            "size": "large"
          },
          {
            "#text": "https://lastfm.freetls.fastly.net/i/u/300x300/e8f76af3d702f7850ba5a4c9fa055030.png",
            "size": "extralarge"
          }
        ]
      },
      {
        "name": "It's a Man's World",
        "playcount": 697774,
        "mbid": "e4e7db8a-2622-47d3-80a5-91534d523ac5",
        "url": "https://www.last.fm/music/Cher/It%27s+a+Man%27s+World",
        "artist": {
          "name": "Cher",
          "mbid": "bfcc6d75-a6a5-4bc6-8282-47aec8531818",
          "url": "https://www.last.fm/music/Cher"
        },
        "image": [
          {
            "#text": "https://lastfm.freetls.fastly.net/i/u/34s/0b094c3f712039f9b83d95a20f4419b4.png",
            "size": "small"
          },
          {
            "#text": "https://lastfm.freetls.fastly.net/i/u/64s/0b094c3f712039f9b83d95a20f4419b4.png",
            "size": "medium"
          },
          {
            "#text": "https://lastfm.freetls.fastly.net/i/u/174s/0b094c3f712039f9b83d95a20f4419b4.png",
            "size": "large"
          },
          {
            "#text": "https://lastfm.freetls.fastly.net/i/u/300x300/0b094c3f712039f9b83d95a20f4419b4.png",
            "size": "extralarge"
          }
        ]
      },
      {
        "name": "Cher's Greatest Hits: 1965-1992",
        "playcount": 610096,
        "url": "https://www.last.fm/music/Cher/Cher%27s+Greatest+Hits:+1965-1992",
        "artist": {
          "name": "Cher",
          "mbid": "bfcc6d75-a6a5-4bc6-8282-47aec8531818",
          "url": "https://www.last.fm/music/Cher"
        },
        "image": [
          {
            "#text": "https://lastfm.freetls.fastly.net/i/u/34s/1dbe42fcbdbf3d444d42feb18d76897a.png",
            "size": "small"
          },
          {
            "#text": "https://lastfm.freetls.fastly.net/i/u/64s/1dbe42fcbdbf3d444d42feb18d76897a.png",
            "size": "medium"
          },
          {
            "#text": "https://lastfm.freetls.fastly.net/i/u/174s/1dbe42fcbdbf3d444d42feb18d76897a.png",
            "size": "large"
          },
          {
            "#text": "https://lastfm.freetls.fastly.net/i/u/300x300/1dbe42fcbdbf3d444d42feb18d76897a.png",
            "size": "extralarge"
          }
        ]
      },
      {
        "name": "Love Hurts",
        "playcount": 728872,
        "mbid": "d52885f4-5444-4361-a1f3-ac4d079b603d",
        "url": "https://www.last.fm/music/Cher/Love+Hurts",
        "artist": {
          "name": "Cher",
          "mbid": "bfcc6d75-a6a5-4bc6-8282-47aec8531818",
          "url": "https://www.last.fm/music/Cher"
        },
        "image": [
          {
            "#text": "https://lastfm.freetls.fastly.net/i/u/34s/f0c8b6840a1ad44b095dc9e68384d0e4.png",
            "size": "small"
          },
          {
            "#text": "https://lastfm.freetls.fastly.net/i/u/64s/f0c8b6840a1ad44b095dc9e68384d0e4.png",
            "size": "medium"
          },
          {
            "#text": "https://lastfm.freetls.fastly.net/i/u/174s/f0c8b6840a1ad44b095dc9e68384d0e4.png",
            "size": "large"
          },
          {
            "#text": "https://lastfm.freetls.fastly.net/i/u/300x300/f0c8b6840a1ad44b095dc9e68384d0e4.png",
            "size": "extralarge"
          }
        ]
      },
      {
        "name": "Living Proof",
        "playcount": 886062,
        "mbid": "182a2ec8-f717-4e06-a88e-604db80ab4aa",
        "url": "https://www.last.fm/music/Cher/Living+Proof",
        "artist": {
          "name": "Cher",
          "mbid": "bfcc6d75-a6a5-4bc6-8282-47aec8531818",
          "url": "https://www.last.fm/music/Cher"
        },
        "image": [
          {
            "#text": "https://lastfm.freetls.fastly.net/i/u/34s/3c84e9ba3b7757328d2d954c3452fd6a.png",
            "size": "small"
          },
          {
            "#text": "https://lastfm.freetls.fastly.net/i/u/64s/3c84e9ba3b7757328d2d954c3452fd6a.png",
            "size": "medium"
          },
          {
            "#text": "https://lastfm.freetls.fastly.net/i/u/174s/3c84e9ba3b7757328d2d954c3452fd6a.png",
            "size": "large"
          },
          {
            "#text": "https://lastfm.freetls.fastly.net/i/u/300x300/3c84e9ba3b7757328d2d954c3452fd6a.png",
            "size": "extralarge"
          }
        ]
      },
      {
        "name": "The Greatest Hits",
        "playcount": 568268,
        "mbid": "023af53b-2a8f-467e-aadc-307b3372ecc2",
        "url": "https://www.last.fm/music/Cher/The+Greatest+Hits",
        "artist": {
          "name": "Cher",
          "mbid": "bfcc6d75-a6a5-4bc6-8282-47aec8531818",
          "url": "https://www.last.fm/music/Cher"
        },
        "image": [
          {
            "#text": "https://lastfm.freetls.fastly.net/i/u/34s/2563ce273c65e39dfe7ea691752237fe.png",
            "size": "small"
          },
          {
            "#text": "https://lastfm.freetls.fastly.net/i/u/64s/2563ce273c65e39dfe7ea691752237fe.png",
            "size": "medium"
          },
          {
            "#text": "https://lastfm.freetls.fastly.net/i/u/174s/2563ce273c65e39dfe7ea691752237fe.png",
            "size": "large"
          },
          {
            "#text": "https://lastfm.freetls.fastly.net/i/u/300x300/2563ce273c65e39dfe7ea691752237fe.png",
            "size": "extralarge"
          }
        ]
      },
      {
        "name": "Dancing Queen",
        "playcount": 1003895,
        "url": "https://www.last.fm/music/Cher/Dancing+Queen",
        "artist": {
          "name": "Cher",
          "mbid": "bfcc6d75-a6a5-4bc6-8282-47aec8531818",
          "url": "https://www.last.fm/music/Cher"
        },
        "image": [
          {
            "#text": "https://lastfm.freetls.fastly.net/i/u/34s/9588cb294176d96325f8ffa3c6ac8d1c.png",
            "size": "small"
          },
          {
            "#text": "https://lastfm.freetls.fastly.net/i/u/64s/9588cb294176d96325f8ffa3c6ac8d1c.png",
            "size": "medium"
          },
          {
            "#text": "https://lastfm.freetls.fastly.net/i/u/174s/9588cb294176d96325f8ffa3c6ac8d1c.png",
            "size": "large"
          },
          {
            "#text": "https://lastfm.freetls.fastly.net/i/u/300x300/9588cb294176d96325f8ffa3c6ac8d1c.png",
            "size": "extralarge"
          }
        ]
      },
      {
        "name": "Gypsys, Tramps & Thieves",
        "playcount": 371196,
        "mbid": "ac1d49a5-611e-4895-921d-83cbec6d1df6",
        "url": "https://www.last.fm/music/Cher/Gypsys,+Tramps+&+Thieves",
        "artist": {
          "name": "Cher",
          "mbid": "bfcc6d75-a6a5-4bc6-8282-47aec8531818",
          "url": "https://www.last.fm/music/Cher"
        },
        "image": [
          {
            "#text": "https://lastfm.freetls.fastly.net/i/u/34s/78851f1f73d714f213d2d8ca54b773e7.png",
            "size": "small"
          },
          {
            "#text": "https://lastfm.freetls.fastly.net/i/u/64s/78851f1f73d714f213d2d8ca54b773e7.png",
            "size": "medium"
          },
          {
            "#text": "https://lastfm.freetls.fastly.net/i/u/174s/78851f1f73d714f213d2d8ca54b773e7.png",
            "size": "large"
          },
          {
            "#text": "https://lastfm.freetls.fastly.net/i/u/300x300/78851f1f73d714f213d2d8ca54b773e7.png",
            "size": "extralarge"
          }
        ]
      }
    ],
    "@attr": {
      "artist": "Cher",
      "page": "1",
      "perPage": "10",
      "totalPages": "3927",
      "total": "39266"
    }
  }
}
